{
  "project_info": {
    "project_number": "588263478683",
    "firebase_url": "https://chatroom-3378c.firebaseio.com",
    "project_id": "chatroom-3378c",
    "storage_bucket": "chatroom-3378c.appspot.com"
  },
  "client": [
    {
      "client_info": {
        "mobilesdk_app_id": "1:588263478683:android:442e5ce1edcf82758c7d3e",
        "android_client_info": {
          "package_name": "com.example.chatroom"
        }
      },
      "oauth_client": [
        {
          "client_id": "588263478683-vshqgdv4epd3p79q21bdosffq2562ogu.apps.googleusercontent.com",
          "client_type": 1,
          "android_info": {
            "package_name": "com.example.chatroom",
            "certificate_hash": "2e448a50b6d0b211cbd74bf6d66eea8072d1a81e"
          }
        },
        {
          "client_id": "588263478683-tub6lkaeitcv9nv224d76bbg9o8mrdnu.apps.googleusercontent.com",
          "client_type": 3
        }
      ],
      "api_key": [
        {
          "current_key": "AIzaSyDZWh4spKiTtnGFYKtimulSpG6aqn1i8QA"
        }
      ],
      "services": {
        "appinvite_service": {
          "other_platform_oauth_client": [
            {
              "client_id": "588263478683-tub6lkaeitcv9nv224d76bbg9o8mrdnu.apps.googleusercontent.com",
              "client_type": 3
            }
          ]
        }
      }
    }
  ],
  "configuration_version": "1"
}